module gitlab.com/focusonesoftware/GolangUtils

go 1.13

require (
	github.com/BurntSushi/toml v0.3.1 // indirect
	github.com/Joker/jade v1.0.0 // indirect
	github.com/Shopify/goreferrer v0.0.0-20181106222321-ec9c9a553398 // indirect
	github.com/ajg/form v1.5.1 // indirect
	github.com/aymerick/raymond v2.0.2+incompatible // indirect
	github.com/dgrijalva/jwt-go v3.2.0+incompatible
	github.com/eknkc/amber v0.0.0-20171010120322-cdade1c07385 // indirect
	github.com/fatih/structs v1.1.0 // indirect
	github.com/flosch/pongo2 v0.0.0-20200913210552-0d938eb266f3 // indirect
	github.com/gavv/monotime v0.0.0-20190418164738-30dba4353424 // indirect
	github.com/google/go-querystring v1.0.0 // indirect
	github.com/gorilla/schema v1.2.0 // indirect
	github.com/imkira/go-interpol v1.1.0 // indirect
	github.com/iris-contrib/blackfriday v2.0.0+incompatible // indirect
	github.com/iris-contrib/formBinder v5.0.0+incompatible // indirect
	github.com/iris-contrib/go.uuid v2.0.0+incompatible // indirect
	github.com/iris-contrib/httpexpect v1.1.2 // indirect
	// github.com/iris-contrib/middleware/jwt v0.0.0-20200913183508-5d1bed0e6ea4
	github.com/iris-contrib/middleware v0.0.0-20190720041902-5f3a20f489c4
	github.com/json-iterator/go v1.1.10 // indirect
	github.com/k0kubun/colorstring v0.0.0-20150214042306-9440f1994b88 // indirect
	github.com/kataras/golog v0.1.5 // indirect
	github.com/kataras/iris v11.1.1+incompatible
	github.com/mattn/go-colorable v0.1.7 // indirect
	github.com/microcosm-cc/bluemonday v1.0.4 // indirect
	github.com/onsi/ginkgo v1.14.1 // indirect
	github.com/onsi/gomega v1.10.2 // indirect
	github.com/ryanuber/columnize v2.1.2+incompatible // indirect
	github.com/sergi/go-diff v1.1.0 // indirect
	github.com/shurcooL/sanitized_anchor_name v1.0.0 // indirect
	github.com/smartystreets/goconvey v1.6.4 // indirect
	github.com/valyala/fasthttp v1.16.0 // indirect
	github.com/xeipuuv/gojsonschema v1.2.0 // indirect
	github.com/yalp/jsonpath v0.0.0-20180802001716-5cc68e5049a0 // indirect
	github.com/yudai/gojsondiff v1.0.0 // indirect
	github.com/yudai/golcs v0.0.0-20170316035057-ecda9a501e82 // indirect
	github.com/yudai/pp v2.0.1+incompatible // indirect
	moul.io/http2curl v1.0.0 // indirect
)
